{"data":[{"id":"82824856-4ee8-4a66-b582-ebfa3fa33936","name":"Alice Brown","age":10,"status":"NICE","location":"Moscow, Russia","city":"Moscow","country":"Russia","lat":55.70610014173939,"lng":37.62338475618014,"wishlist":"Puzzle","behaviorScore":100,"createdAt":"2025-12-28T12:43:37.910Z","updatedAt":"2025-12-29T12:57:15.018Z"}],"pagination":{"page":1,"limit":1,"total":150,"totalPages":150}}