{"data":[{"id":"d9eca0ca-c07a-40a0-b2bb-5539d45b71a7","agentId":"alabaster.s","name":"Alabaster Snowball","password":"candy_cane_lane","avatarUrl":"🎅","status":"ACTIVE","points":11040,"level":8,"title":"Elder Elf","department":"Naughty/Nice Analytics","badges":["List Administrator","Century of Service","Golden Quill"],"lastActive":"2025-12-29T08:22:35.734Z","createdAt":"2025-12-29T08:22:35.734Z","workLogs":[{"id":"f1661293-3c89-4435-b7a3-16f83d61ab68","elfId":"d9eca0ca-c07a-40a0-b2bb-5539d45b71a7","action":"AWARD","description":"Promoted to Level 8: Elder Elf","pointsEarned":500,"timestamp":"2025-12-29T09:06:27.857Z"}]}],"meta":{"total":22,"page":1,"limit":1,"totalPages":22}}